…
```
## The following objects are masked from 'package:base':
## 
##     intersect, setdiff, setequal, union
```

```r
activitydata_date <- group_by(activitydata,date)
stepsperday<-summarise(activitydata_date,total=sum(steps))
stepsperday
```

```
## # A tibble: 61 × 2
##          date total
##        <date> <int>
## 1  2012-10-01    NA
## 2  2012-10-02   126
## 3  2012-10-03 11352
## 4  2012-10-04 12116
## 5  2012-10-05 13294
## 6  2012-10-06 15420
## 7  2012-10-07 11015
## 8  2012-10-08    NA
## 9  2012-10-09 12811
## 10 2012-10-10  9900
## # ... with 51 more rows
```
…
**Part 1**

We need a time series depicting average activity (y axis) by the time interval (x axis). To do this we can group the data by time interval and summaraise it by mean. 


```r
library(dplyr)
activitydata_interval <- group_by(activitydata,interval)
stepsperinterval<-summarise(activitydata_interval,average=mean(steps,na.rm = TRUE))
stepsperinterval
```

```
## # A tibble: 288 × 2
##    interval   average
##       <int>     <dbl>
## 1         0 1.7169811
## 2         5 0.3396226
## 3        10 0.1320755
## 4        15 0.1509434
## 5        20 0.0754717
## 6        25 2.0943396
## 7        30 0.5283019
## 8        35 0.8679245
## 9        40 0.0000000
## 10       45 1.4716981
## # ... with 278 more rows
```
…
